SEL
m_Visible:0
m_X:1551
m_Y:697
m_LineNumber:0
m_Resizable:1
m_OrderingColumn:5
m_HeaderOnly:0
m_Column:R:2:1:63:7:0:1::::7
m_Column: :10:0:9:8:1:1::::6
m_Column:RT:2:1:80:32:0:1::::6
m_Column:Type:6:1:78:0:0:1::::7
m_Column:SID:7:1:56:17:0:1::::7
m_Column:To:7:1:26:6:20:1::::7
END