SYMBOLOGY
SYMBOLSIZE
Airports:symbol:6579300:1.0:0:0:7
Airports:name:6579300:4.5:0:0:1
Low airways:line:6579300:3.5:0:0:7
Low airways:name:6579300:3.5:0:0:8
High airways:line:16512:3.5:0:0:7
High airways:name:2512998:3.5:0:0:8
Fixes:symbol:6205930:1.0:0:0:7
Fixes:name:6579300:3.2:0:0:6
Sids:line:3973350:3.0:0:0:7
Stars:line:3973350:3.0:1:0:7
ARTCC high boundary:line:3973350:3.0:0:1:7
ARTCC boundary:line:3973350:3.0:0:1:7
ARTCC low boundary:line:4113123:3.0:0:1:7
Geo:line:13404672:3.0:0:1:7
VORs:symbol:6205930:1.0:0:0:7
VORs:name:6579300:3.4:0:0:14
VORs:frequency:6579300:3.5:0:0:2
NDBs:symbol:6205930:1.0:0:0:7
NDBs:name:8421504:3.1:0:0:12
NDBs:frequency:8421504:3.5:0:0:0
Runways:centerline:8421504:3.5:0:0:7
Runways:extended centerline:4113123:3.5:0:0:7
Runways:name:8421504:3.5:0:0:7
Datablock:non concerned:16641231:3.2:0:0:7
Datablock:notified:5103867:3.2:0:0:7
Datablock:assumed:11007340:3.2:0:0:7
Datablock:transfer to me initiated:16726015:3.2:0:0:7
Datablock:redundant:47360:3.2:0:0:7
Datablock:information:255:3.2:0:0:7
Datablock:even flight level:40960:3.2:0:0:7
Datablock:odd flight level:40960:3.2:0:0:7
Datablock:user 1:16777215:3.2:0:0:7
Datablock:user 2:33023:3.2:0:0:7
Datablock:user 3:33023:3.2:0:0:7
Datablock:user 4:16776960:3.2:0:0:7
Datablock:user 5:5483007:3.2:0:0:7
Datablock:user 6:16777215:3.2:0:0:7
Datablock:emergency:3289855:3.2:0:0:7
Datablock:ongoing requested by me:8404992:3.5:0:0:7
Datablock:ongoing requested by other:16744448:3.5:0:0:7
Datablock:ongoing accepted:40960:3.5:0:0:7
Datablock:ongoing refused:128:3.5:0:0:7
Datablock:detailed background:3156005:3.5:0:0:7
Datablock:active item background:0:3.5:0:0:7
Datablock:AC list background:12632256:3.2:0:0:7
Datablock:AC list selected background:8421504:3.2:0:0:7
Controller:normal:16777215:3.5:0:0:7
Controller:breaking:13408767:3.5:0:0:7
Controller:timeout:16777215:3.5:0:0:7
Metar:normal:16777215:4.0:0:0:7
Metar:modified:8388863:3.5:0:0:7
Metar:timeout:8388863:3.5:0:0:7
Other:wait:16777215:3.5:0:0:7
Other:distance line:12098174:3.5:0:0:7
Other:distance values:12098174:4.0:0:0:7
Other:distance annotation:12098174:3.5:0:0:7
Other:separation leader:8224000:3.5:0:3:7
Other:find:8224000:3.5:0:5:7
Other:valid airway:32768:3.5:0:2:7
Other:bad direction airway:128:3.5:0:2:7
Other:unconnected airway:8404992:3.5:0:2:7
Other:direct no airway:11842560:3.5:0:2:7
Other:route annotation:16777215:3.0:0:1:7
Other:freetext:16776960:3.2:0:0:7
Other:range rings:12632256:5.0:0:0:2
Other:list header:16777215:3.5:0:0:7
Other:normal menu item:16777215:3.5:0:0:7
Other:disabled menu item:8421504:3.5:0:0:7
Transitions:transition grid:5263440:3.0:0:0:7
Chat:text:16777215:3.5:0:0:7
Chat:background:3289650:3.5:0:0:7
Chat:name normal:16777215:3.5:0:0:7
Chat:name unread:13408767:3.5:0:0:7
Sector:line:128:4.0:0:1:7
Sector:active sector background:6565888:3.5:0:0:7
Sector:inactive sector background:6565888:3.5:0:0:7
SYMBOL:0
SYMBOLITEM:POLYGON -4 -4 -4 4 4 4 4 -4
SYMBOL:1
SYMBOLITEM:ARC 0 0 2 0 360
SYMBOLITEM:ARC 0 0 4 0 360
SYMBOL:2
SYMBOLITEM:MOVETO 0 -9
SYMBOLITEM:LINETO 0 9
SYMBOLITEM:MOVETO 9 0
SYMBOLITEM:LINETO -9 0
SYMBOL:3
SYMBOLITEM:MOVETO 3 3
SYMBOLITEM:LINETO 0 -3
SYMBOLITEM:LINETO -3 3
SYMBOLITEM:LINETO 3 3
SYMBOL:4
SYMBOLITEM:MOVETO 0 -1
SYMBOLITEM:LINETO 0 2
SYMBOLITEM:MOVETO -1 0
SYMBOLITEM:LINETO 2 0
SYMBOL:5
SYMBOLITEM:MOVETO 0 -4
SYMBOLITEM:LINETO 0 5
SYMBOLITEM:MOVETO -4 0
SYMBOLITEM:LINETO 5 0
SYMBOL:6
SYMBOLITEM:MOVETO -4 -4
SYMBOLITEM:LINETO 5 5
SYMBOLITEM:MOVETO 4 -4
SYMBOLITEM:LINETO -5 5
SYMBOL:7
SYMBOLITEM:MOVETO -4 -4
SYMBOLITEM:LINETO 5 5
SYMBOLITEM:MOVETO 4 -4
SYMBOLITEM:LINETO -5 5
SYMBOL:8
SYMBOLITEM:MOVETO -4 -4
SYMBOLITEM:LINETO 5 5
SYMBOLITEM:MOVETO 4 -4
SYMBOLITEM:LINETO -5 5
SYMBOLITEM:MOVETO 0 -4
SYMBOLITEM:LINETO 0 5
SYMBOLITEM:MOVETO -4 0
SYMBOLITEM:LINETO 5 0
SYMBOL:9
SYMBOLITEM:MOVETO -4 -4
SYMBOLITEM:LINETO 5 5
SYMBOLITEM:MOVETO 4 -4
SYMBOLITEM:LINETO -5 5
SYMBOLITEM:MOVETO 0 -4
SYMBOLITEM:LINETO 0 5
SYMBOLITEM:MOVETO -4 0
SYMBOLITEM:LINETO 5 0
SYMBOL:10
SYMBOLITEM:MOVETO -4 -4
SYMBOLITEM:LINETO 5 5
SYMBOLITEM:MOVETO 4 -4
SYMBOLITEM:LINETO -5 5
SYMBOLITEM:MOVETO 0 -4
SYMBOLITEM:LINETO 0 5
SYMBOLITEM:MOVETO -4 0
SYMBOLITEM:LINETO 5 0
SYMBOLITEM:ARC 0 0 9 0 360
SYMBOL:11
SYMBOLITEM:MOVETO -4 -4
SYMBOLITEM:LINETO 5 5
SYMBOLITEM:MOVETO 4 -4
SYMBOLITEM:LINETO -5 5
SYMBOLITEM:MOVETO 0 -4
SYMBOLITEM:LINETO 0 5
SYMBOLITEM:MOVETO -4 0
SYMBOLITEM:LINETO 5 0
SYMBOLITEM:ARC 0 0 9 0 360
SYMBOL:12
SYMBOLITEM:MOVETO -4 1
SYMBOLITEM:LINETO 0 -4
SYMBOLITEM:LINETO 4 1
SYMBOLITEM:LINETO -4 1
SYMBOL:13
SYMBOLITEM:MOVETO -2 -5
SYMBOLITEM:LINETO -2 6
SYMBOLITEM:MOVETO 2 -5
SYMBOLITEM:LINETO 2 6
SYMBOLITEM:MOVETO -3 -2
SYMBOLITEM:LINETO 4 -2
SYMBOLITEM:MOVETO -3 2
SYMBOLITEM:LINETO 4 2
SYMBOL:14
SYMBOLITEM:MOVETO -2 0
SYMBOLITEM:LINETO 0 2
SYMBOLITEM:LINETO 2 0
SYMBOLITEM:LINETO 0 -2
SYMBOLITEM:LINETO -2 0
SYMBOL:15
SYMBOLITEM:MOVETO 0 -6
SYMBOLITEM:LINETO -1 -6
SYMBOLITEM:LINETO -1 -1
SYMBOLITEM:LINETO -6 2
SYMBOLITEM:LINETO -6 3
SYMBOLITEM:LINETO -1 2
SYMBOLITEM:LINETO -1 5
SYMBOLITEM:LINETO -3 6
SYMBOLITEM:LINETO -3 7
SYMBOLITEM:LINETO 0 6
SYMBOLITEM:LINETO 3 7
SYMBOLITEM:LINETO 3 6
SYMBOLITEM:LINETO 1 5
SYMBOLITEM:LINETO 1 2
SYMBOLITEM:LINETO 6 3
SYMBOLITEM:LINETO 6 2
SYMBOLITEM:LINETO 1 -1
SYMBOLITEM:LINETO 1 -6
SYMBOLITEM:LINETO 0 -6
SYMBOL:16
SYMBOLITEM:POLYGON 0 -4 4 0 0 4 -4 0 0 -4 0 -3 3 0 0 3 -3 0 0 -3
SYMBOL:17
SYMBOLITEM:POLYGON 0 -4 4 0 0 4 -4 0 0 -4 0 -3 3 0 0 3 -3 0 0 -3
SYMBOL:18
SYMBOLITEM:MOVETO -4 -4
SYMBOLITEM:LINETO 5 5
SYMBOLITEM:MOVETO 4 -4
SYMBOLITEM:LINETO -5 5
SYMBOLITEM:MOVETO 0 -4
SYMBOLITEM:LINETO 0 5
SYMBOLITEM:MOVETO -4 0
SYMBOLITEM:LINETO 5 0
SYMBOL:19
SYMBOLITEM:MOVETO -4 -4
SYMBOLITEM:LINETO 5 5
SYMBOLITEM:MOVETO 4 -4
SYMBOLITEM:LINETO -5 5
SYMBOLITEM:MOVETO 0 -4
SYMBOLITEM:LINETO 0 5
SYMBOLITEM:MOVETO -4 0
SYMBOLITEM:LINETO 5 0
SYMBOL:20
SYMBOLITEM:MOVETO -4 -4
SYMBOLITEM:LINETO 5 5
SYMBOLITEM:MOVETO 4 -4
SYMBOLITEM:LINETO -5 5
SYMBOLITEM:MOVETO 0 -4
SYMBOLITEM:LINETO 0 5
SYMBOLITEM:MOVETO -4 0
SYMBOLITEM:LINETO 5 0
SYMBOLITEM:ARC 0 0 9 0 360
SYMBOL:21
SYMBOLITEM:MOVETO -4 -4
SYMBOLITEM:LINETO 5 5
SYMBOLITEM:MOVETO 4 -4
SYMBOLITEM:LINETO -5 5
SYMBOLITEM:MOVETO 0 -4
SYMBOLITEM:LINETO 0 5
SYMBOLITEM:MOVETO -4 0
SYMBOLITEM:LINETO 5 0
SYMBOLITEM:ARC 0 0 9 0 360
m_ClipArea:5
END
